{"sarneg_list": [
    "abductions",
    "abductores",
    "abjections",
    "abjunctive",
    "abortively",
    "abridgment",
    "abruptedly",
    "absinthole",
    "absolutive",
    "absolutize",
    "absorptive",
    "absumption",
    "acetopyrin",
    "achenodium",
    "achondrite",
    "acidometry",
    "acronymize",
    "aculeiform",
    "adenovirus",
    "adjunctive",
    "admixtures",
    "admonisher",
    "adolescing",
    "adoptively",
    "adsorptive",
    "afterglows",
    "aftershock",
    "aftersound",
    "agonizedly",
    "agriotypus",
    "agrypnotic",
    "agrotechny",
    "albumenoid",
    "albuminose",
    "algedonics",
    "algometric",
    "algorithms",
    "alpenstock",
    "ambigenous",
    "ambilevous",
    "ambushlike",
    "amylogenic",
    "amphiboles",
    "amphictyon",
    "amphitryon",
    "amphogenic",
    "ampholytic",
    "amphoteric",
    "amplitudes",
    "amurcosity",
    "anchylosed",
    "anchorites",
    "anchorlike",
    "anchorwise",
    "androecium",
    "androlepsy",
    "anelytrous",
    "anemophily",
    "aneuploidy",
    "angiosperm",
    "anglesmith",
    "angletouch",
    "angleworms",
    "angulosity",
    "anhydremic",
    "anhydrotic",
    "antechoirs",
    "anthericum",
    "antichorus",
    "antichrome",
    "anticlergy",
    "antifouler",
    "antigyrous",
    "antilochus",
    "aperulosid",
    "apothecium",
    "archdespot",
    "archfiends",
    "archibuteo",
    "archistome",
    "artichokes",
    "asthenopic",
    "athrogenic",
    "atrophying",
    "audiometry",
    "aureomycin",
    "ausforming",
    "austrophil",
    "authorised",
    "authorized",
    "authorizes",
    "authorling",
    "autodermic",
    "autokinesy",
    "autolyzing",
    "autopsying",
    "autosexing",
    "avoyership",
    "avouchment",
    "azygosperm",
    "backfields",
    "backfriend",
    "background",
    "backslider",
    "backstring",
    "bacterious",
    "baculiform",
    "bayldonite",
    "baldmoneys",
    "balourdise",
    "bankruptcy",
    "bankrupted",
    "bankruptly",
    "banstickle",
    "baphometic",
    "baryphonic",
    "barleysick",
    "baroswitch",
    "basketworm",
    "batfowling",
    "bathflower",
    "batocrinus",
    "bawdyhouse",
    "beachdrops",
    "beachfront",
    "beautyship",
    "bechalking",
    "becharming",
    "beclasping",
    "becloaking",
    "beclothing",
    "beclouding",
    "becomingly",
    "becrawling",
    "becrowding",
    "becrusting",
    "bedwarfing",
    "behaviours",
    "beldamship",
    "beltmaking",
    "benchmarks",
    "benzhydrol",
    "benzofuryl",
    "bermudians",
    "besanctify",
    "bescouring",
    "beshouting",
    "bestrowing",
    "beswarming",
    "bethumping",
    "bewitchful",
    "bichromate",
    "bicondylar",
    "bicornuate",
    "byeworkman",
    "bifurcated",
    "bifurcates",
    "bigamously",
    "bigmouthed",
    "binoculars",
    "binoculate",
    "biotherapy",
    "bipersonal",
    "bipetalous",
    "byproducts",
    "birthplace",
    "bismerpund",
    "bisulcated",
    "bisulphate",
    "bitemporal",
    "bivouacked",
    "blackprint",
    "blackshirt",
    "blacksmith",
    "blackthorn",
    "bladesmith",
    "blandisher",
    "blastoderm",
    "blastogeny",
    "blathering",
    "blazonries",
    "blepharism",
    "blindstory",
    "blockaders",
    "blockading",
    "blockheads",
    "bluepoints",
    "blueprints",
    "blustering",
    "boanergism",
    "boastingly",
    "bodymaking",
    "bodyweight",
    "boethusian",
    "boyfriends",
    "boldfacing",
    "bolstering",
    "boltmaking",
    "bostrychid",
    "botrychium",
    "boucherism",
    "boulangism",
    "boulangist",
    "bouldering",
    "boulevards",
    "boundaries",
    "bounderish",
    "bountihead",
    "bowdlerism",
    "bowldering",
    "boxhauling",
    "brachydome",
    "brachydont",
    "bracketing",
    "bradytelic",
    "branchiest",
    "branchipus",
    "branchlike",
    "breakdowns",
    "breakpoint",
    "breastplow",
    "brickmason",
    "brightsome",
    "broadlings",
    "broadwives",
    "brominated",
    "brotulidae",
    "brunfelsia",
    "brutalised",
    "brutalized",
    "brutalizes",
    "buchmanite",
    "bucketshop",
    "bucklering",
    "buckraming",
    "buckwasher",
    "buckwheats",
    "bucorvinae",
    "bulwarking",
    "buoyancies",
    "bursectomy",
    "bushmaking",
    "butanolide",
    "butcherdom",
    "butchering",
    "butylamine",
    "butyrinase",
    "butlership",
    "cabriolets",
    "cafetorium",
    "camerlingo",
    "campground",
    "campholide",
    "camphorize",
    "candlefish",
    "canephorus",
    "cantorship",
    "caperingly",
    "capernoity",
    "capsulized",
    "captiously",
    "carbethoxy",
    "carbolised",
    "carbolized",
    "carbolizes",
    "carbonised",
    "carbonized",
    "carbonizes",
    "carpholite",
    "carpodetus",
    "castorized",
    "cateringly",
    "cautioners",
    "celibatory",
    "censurably",
    "centaurdom",
    "centigrado",
    "centigrams",
    "centiloquy",
    "centimolar",
    "centralism",
    "centroidal",
    "cephalotus",
    "ceratinous",
    "ceratopsid",
    "cerianthus",
    "ceroplasty",
    "cetorhinus",
    "chairwomen",
    "chalybeous",
    "chalkstone",
    "chalkstony",
    "chambering",
    "chambertin",
    "chamfering",
    "championed",
    "chapournet",
    "chapterful",
    "chaptering",
    "charleston",
    "charmingly",
    "chauliodes",
    "chaumontel",
    "chavibetol",
    "cheatingly",
    "chemotaxis",
    "chervontsi",
    "chevrotain",
    "childermas",
    "chimneypot",
    "chivalrous",
    "chloramide",
    "chloramine",
    "chlorazide",
    "chloridate",
    "chlorinate",
    "chokestrap",
    "chondrites",
    "chondrules",
    "choriambus",
    "choruslike",
    "choultries",
    "chowdering",
    "chrysaline",
    "chrysaloid",
    "chrysamine",
    "chrysolite",
    "chrysotile",
    "christabel",
    "chromatype",
    "chromatize",
    "chronaxies",
    "chutzpadik",
    "chutzpanik",
    "cyanophile",
    "cyathiform",
    "cylindroma",
    "cymiferous",
    "cineplasty",
    "cingulated",
    "cystoidean",
    "cytioderma",
    "cladothrix",
    "clambering",
    "clamouring",
    "clamourist",
    "clangoured",
    "climograph",
    "clinograph",
    "clinometry",
    "clipboards",
    "clypeiform",
    "clofibrate",
    "closterium",
    "clothesbag",
    "clothesman",
    "clothespin",
    "clothmaker",
    "clubfisted",
    "clubmonger",
    "clupeiform",
    "clustering",
    "cnidoblast",
    "coadjument",
    "coadjutive",
    "coadjutrix",
    "codfishery",
    "coelastrum",
    "coequality",
    "coequating",
    "cogitabund",
    "cognisable",
    "cognisably",
    "cognizable",
    "cognizably",
    "coislander",
    "colbertism",
    "coldturkey",
    "colibertus",
    "colymbidae",
    "colubridae",
    "colubrinae",
    "columbidae",
    "columbines",
    "columnated",
    "columnates",
    "columnized",
    "columnizes",
    "columnwise",
    "combinedly",
    "combusting",
    "combustive",
    "combwright",
    "compagnies",
    "comparting",
    "compatible",
    "compatibly",
    "complained",
    "complainer",
    "complaints",
    "completing",
    "complexify",
    "complexing",
    "complexity",
    "compsilura",
    "compulsive",
    "computable",
    "computably",
    "condylarth",
    "configural",
    "configured",
    "configures",
    "confusable",
    "confusably",
    "confusedly",
    "confutable",
    "conjugable",
    "conjugably",
    "conjugales",
    "conjugated",
    "conjugates",
    "consulated",
    "consultary",
    "consultive",
    "consumable",
    "consumated",
    "consumedly",
    "consumpted",
    "contraplex",
    "contrawise",
    "convertism",
    "copyrights",
    "copulating",
    "copulative",
    "corelating",
    "coremaking",
    "coreplasty",
    "coresidual",
    "corydaline",
    "corymbiate",
    "corymblike",
    "coryphaeus",
    "cornetfish",
    "cornfields",
    "cornflakes",
    "corniplume",
    "cornulites",
    "cosingular",
    "coterminal",
    "counterbid",
    "counterfix",
    "counterlaw",
    "counterspy",
    "countywide",
    "countryish",
    "covetingly",
    "coweringly",
    "coxswained",
    "cradlesong",
    "crampingly",
    "crashingly",
    "crawfished",
    "creakingly",
    "creditably",
    "cremations",
    "cryptogame",
    "cryptonema",
    "crystaling",
    "crystalize",
    "crystoleum",
    "croqueting",
    "crumbliest",
    "crumblings",
    "crushingly",
    "crustalogy",
    "cuemanship",
    "culminated",
    "culminates",
    "cumberland",
    "curateship",
    "curatively",
    "curlyheads",
    "curtseying",
    "cushewbird",
    "customable",
    "customably",
    "customized",
    "customizer",
    "dacryolite",
    "dacryolith",
    "daemonurgy",
    "dayflowers",
    "dairywomen",
    "dampcourse",
    "dantophily",
    "daughterly",
    "davenports",
    "deaconship",
    "deathblows",
    "debasingly",
    "debatingly",
    "debauching",
    "deblocking",
    "debonairly",
    "debonairty",
    "debouching",
    "debtorship",
    "decagynous",
    "decalogist",
    "decarhinus",
    "decathlons",
    "decinormal",
    "declinator",
    "decorating",
    "decoupling",
    "decrypting",
    "decryption",
    "decubation",
    "defacingly",
    "defamingly",
    "defaulting",
    "deflations",
    "deflourish",
    "defoliants",
    "deforciant",
    "defrocking",
    "defrosting",
    "delthyrium",
    "demihagbut",
    "demivotary",
    "demography",
    "dentaliums",
    "denticular",
    "dentiloguy",
    "dentiloquy",
    "dentiscalp",
    "depilatory",
    "depositary",
    "depurating",
    "depuration",
    "dermatopsy",
    "dermoblast",
    "dermopathy",
    "designator",
    "designatum",
    "desynaptic",
    "desmopathy",
    "desolating",
    "despairful",
    "despicably",
    "despotical",
    "despoticly",
    "destroying",
    "deutonymph",
    "deutoplasm",
    "dextrinous",
    "dextrously",
    "diabolepsy",
    "diastrophe",
    "diastrophy",
    "dicephalus",
    "dichromasy",
    "dichromate",
    "dictaphone",
    "dictyonema",
    "dictograph",
    "dynametric",
    "dynamiters",
    "dyothelism",
    "diparentum",
    "dipetalous",
    "dipyrenous",
    "diplomates",
    "dipneustal",
    "disaugment",
    "disbarment",
    "disburgeon",
    "disburthen",
    "disconjure",
    "discothque",
    "discounter",
    "discourage",
    "discrepant",
    "disculpate",
    "discutable",
    "disembargo",
    "disenamour",
    "disencharm",
    "disenthral",
    "disfortune",
    "dysgenical",
    "disgruntle",
    "disharmony",
    "dishmonger",
    "dishpanful",
    "dishwatery",
    "disjunctor",
    "dismantler",
    "disownable",
    "dispatcher",
    "dysphrenia",
    "disputable",
    "disputably",
    "dystrophia",
    "dystrophic",
    "distrouble",
    "disulphate",
    "disulphone",
    "dithyrambs",
    "ditrochean",
    "divulgater",
    "divulgator",
    "dobzhansky",
    "docentship",
    "dockmaster",
    "documental",
    "dogmatiser",
    "dogmatizer",
    "dogwatches",
    "donatively",
    "doryanthes",
    "dormancies",
    "doubtingly",
    "doughmaker",
    "dowagerism",
    "dowitchers",
    "downcastly",
    "downstream",
    "draconites",
    "dracontium",
    "dragonfish",
    "dragonlike",
    "drainspout",
    "draughtily",
    "drawknives",
    "dreamingly",
    "drinkables",
    "dumbwaiter",
    "duplicates",
    "duplicator",
    "durbachite",
    "dutymonger",
    "dwarfishly",
    "earthbound",
    "earthlings",
    "ectorhinal",
    "edaciously",
    "educations",
    "eightyfold",
    "elbowchair",
    "elychnious",
    "elucidator",
    "embargoist",
    "emblazonry",
    "embryulcia",
    "emulations",
    "emuscation",
    "endolumbar",
    "endomysial",
    "endopathic",
    "endophasic",
    "endophytal",
    "endophytic",
    "endophragm",
    "endorachis",
    "endostylar",
    "endostylic",
    "enthraldom",
    "epharmonic",
    "epicanthus",
    "epichordal",
    "epistolary",
    "eponychium",
    "equiformal",
    "eruptional",
    "escaloping",
    "escapingly",
    "euharmonic",
    "euomphalid",
    "euphonical",
    "euphorbial",
    "euphoriant",
    "eurybathic",
    "eurythmics",
    "evulgation",
    "exactingly",
    "excusation",
    "excusatory",
    "excusingly",
    "exhausting",
    "exhaustion",
    "exhumating",
    "exhumation",
    "exhumatory",
    "exogastric",
    "exomphalus",
    "exorcismal",
    "expansibly",
    "expiscator",
    "explicator",
    "extricably",
    "extropical",
    "exudations",
    "fabulosity",
    "factiously",
    "factorized",
    "factorship",
    "fadmongery",
    "fagopyrism",
    "falconries",
    "faldistory",
    "fameworthy",
    "farinosely",
    "farmhousey",
    "farsighted",
    "fatherling",
    "fauntleroy",
    "fautorship",
    "favoringly",
    "favouredly",
    "fearnought",
    "februation",
    "fecundator",
    "felspathic",
    "feltmaking",
    "fernambuck",
    "fetchingly",
    "fetiparous",
    "fetography",
    "fieulamort",
    "figurately",
    "fingerhold",
    "fingerpost",
    "fintadores",
    "fireplough",
    "fisherboat",
    "fishmonger",
    "flamenship",
    "flamineous",
    "flamingoes",
    "flandowser",
    "flavorings",
    "flavouring",
    "fletchings",
    "flexuosity",
    "flyweights",
    "flogmaster",
    "floreating",
    "florentium",
    "floribunda",
    "flounciest",
    "flourished",
    "flowcharts",
    "fluidrachm",
    "flunkeydom",
    "flunkeyish",
    "flunkeyism",
    "fluohydric",
    "fluorescin",
    "fluoridate",
    "fluorinate",
    "flushboard",
    "flusherman",
    "flustering",
    "fluxionary",
    "foemanship",
    "folksinger",
    "foraminule",
    "forcipated",
    "foredating",
    "forelaying",
    "forensical",
    "forepaling",
    "foresaying",
    "forestland",
    "forgivable",
    "forgivably",
    "forinsecal",
    "forleaving",
    "formagenic",
    "formalised",
    "formalized",
    "formalizes",
    "formicated",
    "formidable",
    "formidably",
    "formylated",
    "formulated",
    "formulates",
    "formulised",
    "formulized",
    "fornicated",
    "fornicates",
    "forsakenly",
    "fosterland",
    "fosterling",
    "frabjously",
    "fractioned",
    "franchised",
    "francolite",
    "francophil",
    "fratcheous",
    "freakishly",
    "freshmanic",
    "freshwoman",
    "fricandoes",
    "frightable",
    "frightsome",
    "frithsoken",
    "fructoside",
    "fruitcakey",
    "fruitcakes",
    "fruitwoman",
    "fruitwomen",
    "frumpishly",
    "fulgoridae",
    "fulminated",
    "fulminates",
    "fulminator",
    "fumatories",
    "fumigatory",
    "fumigators",
    "functorial",
    "funditores",
    "furanoside",
    "furomethyl",
    "fusobteria",
    "galeorchis",
    "gamostelic",
    "gasometric",
    "gastropexy",
    "gaultherin",
    "gelatinous",
    "geniolatry",
    "geodynamic",
    "geothlypis",
    "germanious",
    "gerundival",
    "gesithcund",
    "gesticular",
    "gierfalcon",
    "gymnarchus",
    "gymnetrous",
    "gymnoplast",
    "gymnotidae",
    "gynarchies",
    "gynephobia",
    "gynethusia",
    "gynostemia",
    "gyrfalcons",
    "gitanemuck",
    "glamorized",
    "glamorizes",
    "glamourize",
    "glanderous",
    "glandiform",
    "glauconite",
    "glycohemia",
    "glycopexia",
    "glycopexis",
    "glycosemia",
    "glycosuria",
    "glycuronid",
    "glykopexic",
    "glucosemia",
    "gnatflower",
    "goatsucker",
    "godfathers",
    "godparents",
    "goldbricks",
    "goldenback",
    "goldenhair",
    "goliardeys",
    "gormandise",
    "gormandize",
    "gothlander",
    "governably",
    "graciously",
    "graecophil",
    "gramineous",
    "grandevity",
    "grandevous",
    "graphemics",
    "grapholite",
    "gravecloth",
    "greyhounds",
    "grievously",
    "grouchiest",
    "groundable",
    "groundably",
    "groundwave",
    "groupthink",
    "grubstaked",
    "guardstone",
    "guidecraft",
    "gunpowdery",
    "gunstocker",
    "guvacoline",
    "habronemic",
    "hackneyism",
    "hacksilber",
    "haemolysin",
    "haemolytic",
    "hailstoned",
    "haimsucken",
    "hambroline",
    "hamrongite",
    "handflower",
    "handygripe",
    "handsomely",
    "handstroke",
    "handwrites",
    "harlequins",
    "harmonised",
    "harmonized",
    "harmonizes",
    "harvestbug",
    "harvesting",
    "headspring",
    "headstrong",
    "heartblock",
    "hectograms",
    "hemidactyl",
    "hemikaryon",
    "hemitropal",
    "hemizygous",
    "hemofuscin",
    "hemolyzing",
    "hempstring",
    "herbagious",
    "herdswoman",
    "hermatypic",
    "hexabromid",
    "hexagynous",
    "hexandrous",
    "hexaploidy",
    "hyalopsite",
    "hyaluronic",
    "hydatiform",
    "hydnaceous",
    "hydracetin",
    "hydramnios",
    "hydrastine",
    "hydrations",
    "hydraucone",
    "hydraulics",
    "hydraulist",
    "hydrobates",
    "hydrocleis",
    "hydrogenic",
    "hidromancy",
    "hydropical",
    "hydroplane",
    "hydrospace",
    "hydrotaxis",
    "hydrotical",
    "hydroxamic",
    "hydurilate",
    "hieromancy",
    "hygroplasm",
    "hylobatine",
    "himantopus",
    "hymnodical",
    "hindermost",
    "hyosternal",
    "hyosternum",
    "hypalgesic",
    "hyperbatic",
    "hyperbaton",
    "hyperbolas",
    "hyperbolic",
    "hyperbulia",
    "hyperdulia",
    "hyperdulic",
    "hyperfocal",
    "hypergolic",
    "hypernomic",
    "hyperosmia",
    "hyperosmic",
    "hypersolid",
    "hypersonic",
    "hyperstoic",
    "hypertonia",
    "hypertonic",
    "hypertonus",
    "hypertoxic",
    "hypnaceous",
    "hypnotised",
    "hypnotiser",
    "hypnotized",
    "hypnotizer",
    "hypnotizes",
    "hypoactive",
    "hypobarism",
    "hypocrital",
    "hypocrites",
    "hypodermal",
    "hypodermic",
    "hypodermis",
    "hypogeusia",
    "hypomnesia",
    "hyponastic",
    "hyponeuria",
    "hyporadius",
    "hypostigma",
    "hypozeugma",
    "hypozeuxis",
    "hysterical",
    "hoactzines",
    "homesickly",
    "homewardly",
    "hopsacking",
    "hortensial",
    "hospitable",
    "hospitably",
    "hospitaler",
    "hotbrained",
    "housecraft",
    "housemaidy",
    "housepaint",
    "houseplant",
    "hoveringly",
    "humanizers",
    "humdingers",
    "humoralist",
    "humpbacked",
    "idemfactor",
    "ideography",
    "ideographs",
    "ideoplasty",
    "imbrangled",
    "impersonal",
    "importable",
    "importably",
    "importance",
    "importancy",
    "importuned",
    "importunes",
    "impoundage",
    "improvable",
    "improvably",
    "imprudency",
    "impudently",
    "impugnable",
    "inchoately",
    "incompared",
    "incroyable",
    "incubatory",
    "incubators",
    "inculpated",
    "inculpates",
    "incurvated",
    "indevoutly",
    "indorsable",
    "inexorably",
    "infamously",
    "informable",
    "informatus",
    "informedly",
    "infraposed",
    "infuscated",
    "ingrateful",
    "ingustable",
    "inoceramus",
    "inoculated",
    "inoculates",
    "inosculate",
    "intemporal",
    "interblock",
    "interclash",
    "interclasp",
    "intercloud",
    "intercoxal",
    "interglyph",
    "interjugal",
    "interlocks",
    "interlocus",
    "interplays",
    "interposal",
    "intershock",
    "intervocal",
    "introduces",
    "involucred",
    "involucres",
    "yokemating",
    "isocephaly",
    "isonuclear",
    "isopleuran",
    "isothermal",
    "itcheoglan",
    "yugoslavic",
    "jacksonite",
    "jacobitely",
    "jargonised",
    "jargonized",
    "jeoparding",
    "jockeyship",
    "jocularity",
    "journalise",
    "journalish",
    "journalism",
    "journalist",
    "journalize",
    "jubilatory",
    "judgmental",
    "judicatory",
    "justifably",
    "jutlandish",
    "juxtaposed",
    "kaligenous",
    "kalsomined",
    "kalsominer",
    "keratinous",
    "keratoncus",
    "kerygmatic",
    "khidmutgar",
    "kidneywort",
    "kiloparsec",
    "kineplasty",
    "kinetogram",
    "kingdomful",
    "kyphosidae",
    "kitchendom",
    "kitchenful",
    "klendusity",
    "knifeboard",
    "kohlrabies",
    "kratogenic",
    "kurbashing",
    "labyrinths",
    "lachrymist",
    "lachrymose",
    "lachrymous",
    "lackeyship",
    "lacqueying",
    "lacquering",
    "lacquerist",
    "lactonized",
    "lacunosity",
    "lacustrine",
    "ladyfinger",
    "lageniform",
    "lageniporm",
    "lambrequin",
    "lancetfish",
    "languished",
    "languisher",
    "laniferous",
    "lanigerous",
    "largemouth",
    "laryngitus",
    "latecoming",
    "lavishment",
    "lawyership",
    "lawrencium",
    "lectionary",
    "lectorship",
    "lemography",
    "lengthways",
    "leptorchis",
    "leucotaxin",
    "leukotaxin",
    "lexigraphy",
    "libocedrus",
    "lifeguards",
    "lightboard",
    "lighterman",
    "lightfaced",
    "lightyears",
    "lightwards",
    "limnograph",
    "lymphation",
    "lymphoduct",
    "lineograph",
    "lithodesma",
    "lithomancy",
    "lithomarge",
    "lithosperm",
    "lobstering",
    "lobsterman",
    "locustidae",
    "logarithms",
    "logicaster",
    "longhaired",
    "longimetry",
    "longitudes",
    "loranskite",
    "lovemaking",
    "lubricants",
    "lubricated",
    "lubricates",
    "lukewarmth",
    "lumberjack",
    "lumbodynia",
    "lupinaster",
    "lutemaking",
    "lutheranic",
    "machineful",
    "mackintosh",
    "macrophyte",
    "macrostyle",
    "magneoptic",
    "magniloquy",
    "magnitudes",
    "mayflowers",
    "makeshifty",
    "malfortune",
    "maliferous",
    "manifestly",
    "manifolder",
    "mantlerock",
    "manuscript",
    "marigenous",
    "marketings",
    "maskflower",
    "masterling",
    "matchboxes",
    "matrocliny",
    "matronized",
    "matronlike",
    "matronship",
    "medicatory",
    "medithorax",
    "medrinacks",
    "megadontic",
    "megalornis",
    "megaphyton",
    "megaphonic",
    "megapodius",
    "megarhinus",
    "megasporic",
    "melanosity",
    "melianthus",
    "melichrous",
    "melicraton",
    "melotragic",
    "mendacious",
    "menopausic",
    "menotyphla",
    "mensurably",
    "mentorship",
    "mercaptids",
    "merchantly",
    "meschantly",
    "mesofurcal",
    "mesognathy",
    "mesokurtic",
    "mesophytic",
    "mesorchial",
    "mesorhinal",
    "metalworks",
    "metaphysic",
    "metaphoric",
    "methanolic",
    "methyldopa",
    "methodical",
    "metrodynia",
    "myasthenic",
    "mycorhizal",
    "microblast",
    "microgadus",
    "microluxes",
    "microphage",
    "microphagy",
    "microphyte",
    "microtypal",
    "microvaxes",
    "microwaves",
    "mydatoxine",
    "midfrontal",
    "midventral",
    "midwatches",
    "mindblower",
    "mineralogy",
    "myoblastic",
    "myographic",
    "myopathies",
    "myoplastic",
    "myrtaceous",
    "mischanter",
    "mischarged",
    "miscounted",
    "misdateful",
    "misexpound",
    "misfortune",
    "misgrafted",
    "mislabored",
    "mislocated",
    "misnatured",
    "mispatched",
    "misplanted",
    "misproduce",
    "mistakeful",
    "mistakenly",
    "mistflower",
    "mistouched",
    "misvouched",
    "miswrought",
    "mitchboard",
    "myxogaster",
    "moderating",
    "modularity",
    "modularize",
    "modulating",
    "modulative",
    "molybdenic",
    "monarchies",
    "monarchist",
    "monarchize",
    "monetarily",
    "mongrelish",
    "mongrelity",
    "monkeytail",
    "mordancies",
    "moribundly",
    "morphactin",
    "morphinate",
    "mortalized",
    "mortalwise",
    "mosandrite",
    "motherkins",
    "motherland",
    "motherling",
    "mouldering",
    "moustached",
    "mousterian",
    "mouthingly",
    "mucronated",
    "mudslinger",
    "multibreak",
    "multichord",
    "multifaced",
    "multigraph",
    "multiphase",
    "multiwords",
    "muscalonge",
    "muscardine",
    "muskflower",
    "muskhogean",
    "narcolepsy",
    "narcotised",
    "narcotized",
    "narcotizes",
    "narthecium",
    "nasethmoid",
    "nasutiform",
    "naupliform",
    "navigerous",
    "nebulosity",
    "necropathy",
    "necrophagy",
    "necrophily",
    "nectarious",
    "negotiably",
    "neighborly",
    "neighbours",
    "neoblastic",
    "neographic",
    "neophytism",
    "neoplastic",
    "nephralgic",
    "nephrodium",
    "neuroblast",
    "neurogliac",
    "neurolymph",
    "neurolytic",
    "neuropathy",
    "neurophagy",
    "neuroplasm",
    "neutralism",
    "neutrophil",
    "nightclubs",
    "nightmares",
    "nightwards",
    "nymphoides",
    "noctambule",
    "nomarchies",
    "normalcies",
    "normalised",
    "normalized",
    "normalizes",
    "notaryship",
    "noticeably",
    "novaculite",
    "novelcraft",
    "nucleators",
    "nucleiform",
    "nugatorily",
    "numerosity",
    "obduracies",
    "obdurately",
    "obdurating",
    "obeisantly",
    "obfuscated",
    "objectival",
    "objurgated",
    "objurgates",
    "obscuredly",
    "observancy",
    "observatin",
    "odelsthing",
    "oysterling",
    "onychauxis",
    "opalescing",
    "opisthenar",
    "opuntiales",
    "orbiculate",
    "orchestian",
    "orchidales",
    "ordanchite",
    "ordinately",
    "oscularity",
    "osculating",
    "osculatrix",
    "osphyalgic",
    "osphradium",
    "ostracized",
    "outbarking",
    "outbawling",
    "outbeaming",
    "outbearing",
    "outblacken",
    "outblazing",
    "outbraving",
    "outcaviled",
    "outchamber",
    "outcharmed",
    "outchasing",
    "outclimbed",
    "outcrawled",
    "outdrawing",
    "outfabling",
    "outflaming",
    "outflanked",
    "outflanker",
    "outflaring",
    "outgambled",
    "outhearing",
    "outyelping",
    "outlandish",
    "outlawries",
    "outleading",
    "outleaping",
    "outmarched",
    "outmarches",
    "outmiracle",
    "outplaying",
    "outpraying",
    "outpraised",
    "outreading",
    "outrhyming",
    "outrivaled",
    "outserving",
    "outshaming",
    "outshaping",
    "outsharpen",
    "outslander",
    "outsparkle",
    "outswindle",
    "outswinger",
    "outwalking",
    "outwarbled",
    "outwearing",
    "outweaving",
    "outwhirled",
    "outwrangle",
    "overacting",
    "overbaking",
    "overblanch",
    "overbuying",
    "overbusily",
    "overdainty",
    "overflight",
    "overflying",
    "overguilty",
    "overhating",
    "overhumbly",
    "overjading",
    "overkindly",
    "overlading",
    "overlaying",
    "overlaunch",
    "overmighty",
    "overpaying",
    "overphysic",
    "overplying",
    "overpublic",
    "overpunish",
    "oversating",
    "oversimply",
    "overslaugh",
    "overslight",
    "oversubtly",
    "overtaking",
    "overtaxing",
    "overthinly",
    "ovicapsule",
    "oviculated",
    "oxyblepsia",
    "oxyhematin",
    "oxymuriate",
    "oxystearic",
    "oxysulfide",
    "oxysulphid",
    "oxywelding",
    "pachyderms",
    "pachnolite",
    "padlocking",
    "paedonymic",
    "paintbrush",
    "palindrome",
    "palmchrist",
    "palustrine",
    "panegyrics",
    "panegyrist",
    "panhygrous",
    "panthelism",
    "parbuckled",
    "parchingly",
    "parchmenty",
    "parchments",
    "parciloquy",
    "parethmoid",
    "paronymize",
    "paroxysmic",
    "parqueting",
    "parsonlike",
    "parthenium",
    "parvenudom",
    "parvenuism",
    "pasticheur",
    "pastorlike",
    "pastorling",
    "patchworky",
    "pathfinder",
    "pathogenic",
    "patrocliny",
    "patronymic",
    "patronised",
    "patronized",
    "patronizes",
    "paunchiest",
    "pectoralis",
    "peculating",
    "peculation",
    "peculators",
    "pedanticly",
    "pedatiform",
    "pediastrum",
    "pedimanous",
    "pelargikon",
    "pelargonic",
    "pelasgikon",
    "pelycogram",
    "pelycosaur",
    "pentachord",
    "pentosuria",
    "perculsion",
    "perflation",
    "periculant",
    "periductal",
    "perigynous",
    "perishably",
    "peristylum",
    "peristomal",
    "permutably",
    "peroxyacid",
    "personably",
    "personalty",
    "persuading",
    "perviously",
    "petaliform",
    "phagocyter",
    "phagolytic",
    "phantomize",
    "phenacodus",
    "phenocryst",
    "philanders",
    "philogeant",
    "phylogenic",
    "phymatodes",
    "physiocrat",
    "physoderma",
    "physometra",
    "phytocidal",
    "phytogenic",
    "phlebodium",
    "phlebogram",
    "phlegmatic",
    "phlegmonic",
    "phlyzacium",
    "phonematic",
    "phonetical",
    "phragmites",
    "phryganeid",
    "pickleworm",
    "picturable",
    "picturably",
    "picturedom",
    "piedmontal",
    "pigmentary",
    "pignorated",
    "pinachrome",
    "pinaverdol",
    "pyranoside",
    "pyrazoline",
    "pyrogentic",
    "pyrolusite",
    "pyromantic",
    "pyromucate",
    "pistolgram",
    "pistonhead",
    "pitcherful",
    "pitcherman",
    "pitchforks",
    "pythagoric",
    "pythogenic",
    "pythonical",
    "pythonidae",
    "placentoid",
    "placodermi",
    "playground",
    "playmonger",
    "playthings",
    "playwright",
    "planetoids",
    "planimetry",
    "planometry",
    "planterdom",
    "plasmochin",
    "plasmocyte",
    "plasmogeny",
    "plasmoquin",
    "plastering",
    "plastidome",
    "platformed",
    "platymeric",
    "platysomid",
    "platonizer",
    "plauditory",
    "pleasuring",
    "pleomastic",
    "pleonastic",
    "pleromatic",
    "pleustonic",
    "ploughwise",
    "plowgraith",
    "plowmaking",
    "pluckerian",
    "plumbagine",
    "pluteiform",
    "pneumatics",
    "pneumolith",
    "pocketfuls",
    "pocketsful",
    "pockmantie",
    "pointmaker",
    "pokerishly",
    "polyactine",
    "polyandric",
    "polyangium",
    "polianthes",
    "polyanthus",
    "polybasite",
    "polybranch",
    "polychrest",
    "polyctenid",
    "polyethnic",
    "polygamies",
    "polygamist",
    "polygamize",
    "polygenism",
    "polygenist",
    "polyhaemic",
    "polyhedric",
    "polymagnet",
    "polymastic",
    "polymathic",
    "polyneuric",
    "polysemant",
    "polishment",
    "polytheism",
    "ponticular",
    "porcelains",
    "portglaive",
    "portunidae",
    "postclimax",
    "postfurcal",
    "postgenial",
    "postmarked",
    "postmedial",
    "postmedian",
    "postneural",
    "postrhinal",
    "postulance",
    "postulancy",
    "posturized",
    "postverbal",
    "potcherman",
    "poulardize",
    "poultryman",
    "poultrymen",
    "prankishly",
    "pratincole",
    "preachings",
    "preadjunct",
    "preambling",
    "precasting",
    "precaution",
    "preciously",
    "preclosing",
    "precluding",
    "preclusion",
    "preconsult",
    "predacious",
    "predations",
    "predicably",
    "prefashion",
    "preholding",
    "preholiday",
    "prejustify",
    "premolding",
    "premusical",
    "prequalify",
    "prequoting",
    "preshowing",
    "presylvian",
    "presoaking",
    "presolving",
    "prestomial",
    "presumably",
    "preumbonal",
    "prevaluing",
    "previously",
    "prewashing",
    "pricklouse",
    "princedoms",
    "prisonable",
    "proambient",
    "proatheism",
    "probathing",
    "problemist",
    "proclaimed",
    "procnemial",
    "procumbent",
    "prodefault",
    "producible",
    "productile",
    "productive",
    "proethical",
    "profaculty",
    "profitable",
    "profitably",
    "proflavine",
    "profligacy",
    "profligate",
    "profulgent",
    "profundity",
    "progenital",
    "prognathic",
    "projacient",
    "projecting",
    "promycelia",
    "promisable",
    "promiseful",
    "promulgate",
    "proscenium",
    "prosecting",
    "proslyting",
    "prosthenic",
    "proudishly",
    "provencial",
    "providable",
    "providance",
    "prudential",
    "psalmodize",
    "psalterion",
    "psalterium",
    "pseudimago",
    "pseudomica",
    "pseudovary",
    "psychiater",
    "psychogram",
    "psychotria",
    "psiloceran",
    "psilothrum",
    "pterygiums",
    "pterygodum",
    "pteromalid",
    "pulmonated",
    "pulmonifer",
    "pulvinated",
    "punchboard",
    "punctiform",
    "punishable",
    "punishably",
    "purbeckian",
    "purchasing",
    "purgations",
    "purgatives",
    "puritandom",
    "pushmobile",
    "putredinal",
    "putrefying",
    "quackishly",
    "quadriceps",
    "quadricone",
    "quadrilogy",
    "quadripole",
    "quadrisect",
    "quakership",
    "quatrefoil",
    "questingly",
    "questorial",
    "quicksandy",
    "quickthorn",
    "quickwater",
    "quincewort",
    "quinometry",
    "quinsywort",
    "quizmaster",
    "quodlibetz",
    "racemously",
    "radiculose",
    "radiectomy",
    "randomizes",
    "randomwise",
    "raunchiest",
    "ravenously",
    "ravishedly",
    "ravishment",
    "readopting",
    "rebuckling",
    "rebukingly",
    "reclasping",
    "reclothing",
    "recomplain",
    "recoupling",
    "recubation",
    "recusation",
    "rediscount",
    "redispatch",
    "redoubling",
    "redoubting",
    "reductions",
    "refloating",
    "refocusing",
    "refusingly",
    "regulation",
    "reichsland",
    "relocating",
    "rematching",
    "removalist",
    "republican",
    "resaluting",
    "resampling",
    "resanctify",
    "resolvancy",
    "restabling",
    "restacking",
    "restamping",
    "restocking",
    "restudying",
    "resudation",
    "resultancy",
    "resumption",
    "reticulosa",
    "retouching",
    "revanchism",
    "revanchist",
    "revictuals",
    "revokingly",
    "rhamnoside",
    "rhapsodize",
    "rheumatics",
    "rheumatoid",
    "rhyacolite",
    "rhinobatus",
    "rhyodacite",
    "rhizoplane",
    "rhizoplast",
    "rhodymenia",
    "roastingly",
    "romanceful",
    "romanceish",
    "romanticly",
    "ropelaying",
    "ropemaking",
    "rosemaling",
    "roughnecks",
    "roughslant",
    "roundelays",
    "roundtable",
    "rowlandite",
    "rudimental",
    "rudolphine",
    "rumbowline",
    "rumbowling",
    "sanctilogy",
    "sanctorium",
    "sandflower",
    "sanforized",
    "saprogenic",
    "sarcophile",
    "savoringly",
    "scampering",
    "scampingly",
    "scathingly",
    "sceliphron",
    "scenograph",
    "scheduling",
    "schemingly",
    "scherzando",
    "schizogamy",
    "schmalzier",
    "scholarity",
    "sciography",
    "scyphiform",
    "scythework",
    "sclerotium",
    "scolytidae",
    "scombridae",
    "scorbutize",
    "scorpaenid",
    "scoutingly",
    "scowbanker",
    "scowdering",
    "scrambling",
    "scrapingly",
    "scrofulide",
    "scrubwoman",
    "scrubwomen",
    "scrumption",
    "sculptorid",
    "scutigeral",
    "sectionary",
    "secularity",
    "seducingly",
    "semaphoric",
    "semicupola",
    "semilunary",
    "semirotund",
    "septuncial",
    "seralbumin",
    "sermonical",
    "serpulidan",
    "servantdom",
    "setuliform",
    "sextipolar",
    "sextupling",
    "shackledom",
    "shadflower",
    "shadowlike",
    "shantylike",
    "shetlandic",
    "shylocking",
    "shipbroken",
    "shipwrecky",
    "shmaltzier",
    "shockingly",
    "shoemaking",
    "shoplifted",
    "shoplifter",
    "shopwalker",
    "shoupeltin",
    "shoutingly",
    "shrievalty",
    "shrinkable",
    "shroudlike",
    "sicklewort",
    "signatured",
    "silverback",
    "symbolater",
    "symbolized",
    "symbolizer",
    "sympathize",
    "symphonize",
    "simulatory",
    "syncarpium",
    "syncopated",
    "syndetical",
    "syndicator",
    "synergical",
    "synergidal",
    "synoptical",
    "synthermal",
    "syntrophic",
    "siphonated",
    "siphuncled",
    "syringeful",
    "slathering",
    "slaughtery",
    "slidegroat",
    "slipformed",
    "slopmaking",
    "slumbering",
    "smackingly",
    "smartingly",
    "smoldering",
    "smothering",
    "snakemouth",
    "snapholder",
    "snoqualmie",
    "snowbridge",
    "snowflight",
    "soberingly",
    "solifugean",
    "solpugidea",
    "somewhatly",
    "somnipathy",
    "soundtrack",
    "southernly",
    "spaewright",
    "spangolite",
    "sparkingly",
    "spathiform",
    "speakingly",
    "speculator",
    "spermaduct",
    "spermation",
    "spermatoid",
    "spermiduct",
    "spermoduct",
    "sphenogram",
    "sphenoidal",
    "spherality",
    "spheration",
    "spheroidal",
    "sphygmodic",
    "sphyraenid",
    "sphyrnidae",
    "spiculated",
    "spinulated",
    "splachnoid",
    "splaymouth",
    "spleniform",
    "splotchier",
    "splotching",
    "spondylium",
    "sporangite",
    "sporangium",
    "sportingly",
    "sportively",
    "sporulated",
    "sprauchled",
    "spridhogue",
    "sprightful",
    "springbuck",
    "springhalt",
    "springhead",
    "springlock",
    "sproutland",
    "sproutling",
    "spurtively",
    "spurwinged",
    "squaliform",
    "squelching",
    "stachering",
    "stachydrin",
    "stackering",
    "stampeding",
    "staphyline",
    "staphylion",
    "starchedly",
    "starchlike",
    "starveling",
    "stenograph",
    "sterculiad",
    "stewarding",
    "stycerinol",
    "stickadore",
    "stickadove",
    "stylograph",
    "stylopidae",
    "stylopized",
    "stymphalid",
    "stimulance",
    "stimulancy",
    "stinkardly",
    "stipendary",
    "stockading",
    "stockinged",
    "stockinger",
    "stockpiled",
    "stockpiler",
    "stomachful",
    "stomaching",
    "stompingly",
    "stormingly",
    "stoundmeal",
    "strackling",
    "strainedly",
    "streamling",
    "strychnize",
    "strickenly",
    "stridhanum",
    "strombidae",
    "strongback",
    "stronghead",
    "strongylid",
    "stronglike",
    "strophical",
    "studflower",
    "stupefying",
    "subacridly",
    "subalmoner",
    "subarticle",
    "subcaption",
    "subcentral",
    "subception",
    "subchanter",
    "subchapter",
    "subchordal",
    "subcyanide",
    "subclimate",
    "subcompany",
    "subcordate",
    "subdecimal",
    "subdeltaic",
    "subdialect",
    "subendymal",
    "subfactory",
    "subfoliate",
    "subforeman",
    "subfrontal",
    "subgenital",
    "subglenoid",
    "subheading",
    "subhepatic",
    "subhyaline",
    "subhyaloid",
    "subjectdom",
    "subjectify",
    "subjecting",
    "subjection",
    "subjoinder",
    "subkingdom",
    "sublighted",
    "sublimated",
    "sublimator",
    "submachine",
    "submarined",
    "submediant",
    "subnetwork",
    "suboptical",
    "suboptimal",
    "subordinal",
    "suborganic",
    "subphrenic",
    "subpotency",
    "subproject",
    "subreption",
    "subretinal",
    "subrogated",
    "subtepidly",
    "subtypical",
    "subtrahend",
    "subvariety",
    "subventral",
    "subverting",
    "subwealthy",
    "subworkman",
    "subworkmen",
    "sulfatized",
    "sulfhydric",
    "sulfoamide",
    "sulfonamic",
    "sulfonated",
    "sulphamide",
    "sulphamine",
    "sulphamino",
    "sulphating",
    "sulphation",
    "sulphatize",
    "sulphazide",
    "sulphydric",
    "sulphinate",
    "sulphoamid",
    "sulphocyan",
    "sulphonate",
    "sulphoxide",
    "sundaylike",
    "sunlighted",
    "superblock",
    "superclaim",
    "supercloth",
    "superdying",
    "superfancy",
    "supergiant",
    "superyacht",
    "superlying",
    "supermanly",
    "supertonic",
    "supervital",
    "superwoman",
    "suprahyoid",
    "surcingled",
    "surfacedly",
    "surjection",
    "suzerainty",
    "swearingly",
    "swinglebar",
    "switchable",
    "switchgear",
    "switchyard",
    "switchover",
    "tabuliform",
    "tambourine",
    "tambouring",
    "tambourins",
    "tanglefish",
    "taperingly",
    "tardiloquy",
    "tarmosined",
    "tarsonemid",
    "taurophile",
    "teachingly",
    "telharmony",
    "telophasic",
    "temporalis",
    "tendrilous",
    "tenography",
    "terminably",
    "tersulphid",
    "thargelion",
    "theligonum",
    "theomagics",
    "theurgical",
    "thimerosal",
    "thymogenic",
    "thiofurane",
    "thyreoidal",
    "thyrogenic",
    "thyroideal",
    "thyroidean",
    "thyrsoidal",
    "threnodial",
    "throwbacks",
    "thumbnails",
    "thumbscrew",
    "thumpingly",
    "thunbergia",
    "thunderbox",
    "timberjack",
    "timberland",
    "tinselwork",
    "typhaceous",
    "typhogenic",
    "tolfraedic",
    "tonguebird",
    "tonguefish",
    "tongueplay",
    "toparchies",
    "tornachile",
    "touchingly",
    "tourmaline",
    "tovariches",
    "toweringly",
    "toxalbumic",
    "toxalbumin",
    "toxiphagus",
    "trachelium",
    "trachyline",
    "trackhound",
    "tradesfolk",
    "traducible",
    "tragedious",
    "traymobile",
    "trampishly",
    "trampoline",
    "transfixed",
    "translucid",
    "transmould",
    "trapeziums",
    "trapezoids",
    "trauchling",
    "travelings",
    "treasonful",
    "tremulando",
    "trepidancy",
    "triamylose",
    "tribesfolk",
    "trichogyne",
    "trichoplax",
    "triglyphed",
    "trygonidae",
    "trimensual",
    "tripewoman",
    "tripleback",
    "tripsomely",
    "trisulfone",
    "trivalency",
    "trophesial",
    "troughlike",
    "troughwise",
    "truckloads",
    "tubemaking",
    "tumbledown",
    "turbanlike",
    "turbanwise",
    "turkeyfish",
    "turkomanic",
    "turkophile",
    "tuscanlike",
    "twinkledum",
    "udographic",
    "ulcerating",
    "ulceration",
    "ulotrichan",
    "ulotriches",
    "ultrafiche",
    "ultrasonic",
    "unabjectly",
    "unabortive",
    "unabsolved",
    "unactively",
    "unadoptive",
    "unadroitly",
    "unarticled",
    "unascribed",
    "unavowedly",
    "unbaptised",
    "unbaptized",
    "unbiasedly",
    "unbirthday",
    "unbishoped",
    "unbishoply",
    "unblighted",
    "unbodylike",
    "unbrightly",
    "unbristled",
    "unbroached",
    "uncapsized",
    "uncaptived",
    "unchastely",
    "unchivalry",
    "unchokable",
    "unclimaxed",
    "uncloister",
    "uncoarsely",
    "uncombated",
    "uncompared",
    "uncompiled",
    "uncopiable",
    "uncopyable",
    "uncraftily",
    "uncredibly",
    "undefiably",
    "underclift",
    "undercloak",
    "undercloth",
    "undercoats",
    "underflows",
    "underhabit",
    "underlight",
    "undermatch",
    "underpitch",
    "underplays",
    "undersight",
    "understamp",
    "understock",
    "underswamp",
    "underwaist",
    "underwatch",
    "underwitch",
    "undescript",
    "undespotic",
    "undilatory",
    "undirectly",
    "undogmatic",
    "undomestic",
    "undrivable",
    "unemphatic",
    "unevitably",
    "unfactored",
    "unfatherly",
    "unfathomed",
    "unfavorite",
    "unfeasibly",
    "unfervidly",
    "unfestival",
    "unfishable",
    "unflavored",
    "unflitched",
    "unfoliaged",
    "unfoliated",
    "unforcedly",
    "unforcible",
    "unforcibly",
    "unfordable",
    "unforecast",
    "unfreakish",
    "unfrighted",
    "unfroglike",
    "ungamboled",
    "ungladsome",
    "unglimpsed",
    "ungoatlike",
    "ungodliest",
    "unheartily",
    "unheraldic",
    "unheroical",
    "unhideably",
    "unhospital",
    "unidactyle",
    "unidextral",
    "uniflorate",
    "uniformest",
    "unimpacted",
    "unimparted",
    "unimplored",
    "unimported",
    "unimproved",
    "unisolated",
    "unlavished",
    "unlocative",
    "unmajestic",
    "unmethodic",
    "unmetrical",
    "unmiracled",
    "unmystical",
    "unmythical",
    "unmodestly",
    "unmodishly",
    "unmoralist",
    "unmorality",
    "unmoralize",
    "unmorbidly",
    "unmortised",
    "unmotherly",
    "unobviated",
    "unoperably",
    "unoperatic",
    "unoverpaid",
    "unoxidable",
    "unpartible",
    "unphysical",
    "unpickable",
    "unplighted",
    "unpoetical",
    "unpolished",
    "unportable",
    "unprefixal",
    "unprelatic",
    "unprickled",
    "unpriestly",
    "unprizable",
    "unprobated",
    "unprofited",
    "unpromised",
    "unprovable",
    "unprovably",
    "unprovised",
    "unravished",
    "unregality",
    "unriskable",
    "unroyalist",
    "unsacredly",
    "unsavorily",
    "unscramble",
    "unscrawled",
    "unscrimped",
    "unscripted",
    "unseraphic",
    "unshackled",
    "unshavedly",
    "unshowable",
    "unshrewdly",
    "unsickerly",
    "unsymbolic",
    "unskaithed",
    "unslighted",
    "unsmirched",
    "unsmokable",
    "unsobriety",
    "unsociable",
    "unsociably",
    "unsoldiery",
    "unsolitary",
    "unsomberly",
    "unsombrely",
    "unsortable",
    "unspiraled",
    "unsportive",
    "unstarched",
    "unstarlike",
    "unsteadily",
    "unstylized",
    "unstorable",
    "unstormily",
    "unswitched",
    "untailored",
    "untemporal",
    "unthwacked",
    "untorpidly",
    "untowardly",
    "untrampled",
    "untrophied",
    "untropical",
    "untrowable",
    "unvariedly",
    "unveracity",
    "unvertical",
    "unvibrated",
    "unviolated",
    "unvisceral",
    "unvoidable",
    "unwhistled",
    "unwickedly",
    "unwordable",
    "unwordably",
    "unworkable",
    "unworkably",
    "unworthies",
    "unworthily",
    "unwritable",
    "upbrighten",
    "uphoarding",
    "upholstery",
    "upreaching",
    "uprightman",
    "upthrowing",
    "urogenital",
    "urohematin",
    "urosthenic",
    "vaginopexy",
    "vanquished",
    "vanquisher",
    "vaporingly",
    "vapourised",
    "vapourized",
    "vectograph",
    "vehiculary",
    "venography",
    "ventricous",
    "vermifugal",
    "veronalism",
    "versiloquy",
    "vesicatory",
    "vesiculary",
    "vestibular",
    "vibraphone",
    "victualers",
    "viperously",
    "viscometry",
    "vitreously",
    "vmintegral",
    "vocabulist",
    "vocalizers",
    "vociferant",
    "volapukism",
    "volapukist",
    "volcanized",
    "volkswagen",
    "volumetric",
    "vouchering",
    "vouchsafed",
    "vouchsafer",
    "vulcanised",
    "vulcaniser",
    "vulcanized",
    "vulcanizer",
    "vulcanizes",
    "vulgarised",
    "vulgarized",
    "vulgarizes",
    "vulgarwise",
    "wagonsmith",
    "wainscoted",
    "walpurgite",
    "wanderlust",
    "wanrestful",
    "wardenship",
    "watchingly",
    "waterblink",
    "waterbound",
    "waterbucks",
    "wateringly",
    "waterishly",
    "wavefronts",
    "waveringly",
    "whenabouts",
    "whipmaster",
    "whipsocket",
    "whirlabout",
    "whitmonday",
    "whitsunday",
    "wykehamist",
    "windbreaks",
    "windbroach",
    "windermost",
    "windplayer",
    "windstream",
    "windsucker",
    "wingspread",
    "witherband",
    "witzchoura",
    "wolfachite",
    "wolframine",
    "wolframite",
    "womanishly",
    "womanizers",
    "womanliest",
    "wordlength",
    "wordmaking",
    "worktables",
    "worldaught",
    "worldquake",
    "worshipful",
    "wrestingly",
    "xanthydrol",
    "xanthoderm",
    "xenosaurid",
    "xerophytic",
    "xylophagid",
    "xylophagus",
    "xiphosuran",
    "zaphrentid",
    "zaphrentis",
    "zenithward",
    "zenography",
    "zygobranch",
    "zygopteran",
    "zygopterid",
    "zygopteris",
    "zincograph"]}